Imran’s Visual Analytics page - Take-home Exercise 4d - plotting for project poster
…
wide_quarter_summary_df <- quarter_summary_df %>%
  pivot_wider(
    names_from = mean,
    values_from = Quarters,
    values_fill = list(Quarters = NA)  # Fill with NA where there are no quarters
  )

print(wide_quarter_summary_df)

Simple feature collection with 28 features and 4 fields
Geometry type: GEOMETRY
Dimension:     XY
Bounding box:  xmin: 93.09198 ymin: 9.696844 xmax: 99.32485 ymax: 28.54554
Geodetic CRS:  WGS 84
# A tibble: 28 × 5
   DT                                  geometry `Low-High` `High-High` `Low-Low`
   <chr>                         <GEOMETRY [°]> <chr>      <chr>       <chr>    
 1 Bawlake   POLYGON ((97.52725 19.33779, 97.5… 2022Q1, 2… 2021Q3      <NA>     
 2 Bhamo     POLYGON ((97.19567 24.90225, 97.1… 2023Q4     2021Q1, 20… <NA>     
 3 Dawei     MULTIPOLYGON (((98.13264 13.53337… <NA>       2022Q4, 20… <NA>     
 4 Gangaw    POLYGON ((94.11823 22.76677, 94.1… <NA>       2021Q3, 20… <NA>     
 5 Hakha     POLYGON ((93.3483 23.07166, 93.33… 2022Q1, 2… <NA>        <NA>     
 6 Hpa-An    MULTIPOLYGON (((97.815 16.52402, … 2022Q1, 2… <NA>        <NA>     
 7 Kale      POLYGON ((94.17719 23.65037, 94.1… <NA>       2021Q4, 20… <NA>     
 8 Kanbalu   POLYGON ((95.10246 23.84708, 95.1… 2022Q2, 2… 2022Q4, 20… <NA>     
 9 Katha     POLYGON ((95.80617 24.95999, 95.8… <NA>       2021Q2      <NA>     
10 Kawthoung MULTIPOLYGON (((98.10929 9.708863… 2022Q4, 2… <NA>        <NA>     
# ℹ 18 more rows
…
wide_quarter_summary_df2 <- quarter_summary_df2 %>%
  pivot_wider(
    names_from = cluster,
    values_from = Quarters,
    values_fill = list(Quarters = NA)  # Fill with NA where there are no quarters
  )

print(wide_quarter_summary_df2)

Simple feature collection with 30 features and 3 fields
Geometry type: GEOMETRY
Dimension:     XY
Bounding box:  xmin: 93.09198 ymin: 9.696844 xmax: 99.32485 ymax: 28.54554
Geodetic CRS:  WGS 84
# A tibble: 30 × 4
   DT                                                       geometry Low   High 
   <chr>                                              <GEOMETRY [°]> <chr> <chr>
 1 Bawlake   POLYGON ((97.52725 19.33779, 97.52732 19.34059, 97.524… 2022… 2021…
 2 Bhamo     POLYGON ((97.19567 24.90225, 97.1954 24.90408, 97.1909… 2023… 2021…
 3 Dawei     MULTIPOLYGON (((98.13264 13.53337, 98.13266 13.53345, … <NA>  2022…
 4 Gangaw    POLYGON ((94.11823 22.76677, 94.11878 22.7686, 94.1152… <NA>  2021…
 5 Hakha     POLYGON ((93.3483 23.07166, 93.33987 23.07274, 93.3431… 2022… <NA> 
 6 Hpa-An    MULTIPOLYGON (((97.815 16.52402, 97.81483 16.52413, 97… 2022… <NA> 
 7 Kale      POLYGON ((94.17719 23.65037, 94.17714 23.65038, 94.177… <NA>  2022…
 8 Kanbalu   POLYGON ((95.10246 23.84708, 95.10219 23.84983, 95.103… 2021… 2023…
 9 Katha     POLYGON ((95.80617 24.95999, 95.80529 24.95822, 95.793… <NA>  2021…
10 Kawthoung MULTIPOLYGON (((98.10929 9.708863, 98.11007 9.711755, … 2022… <NA> 
# ℹ 20 more rows
…
