Imran’s Visual Analytics page - Take-home Exercise 1b
…
lisa <- wm_q %>% 
  mutate(local_moran = local_moran(
    Incidents, nb, wt, nsim = 99),
         .before = 1) %>%
  unnest(local_moran)

lisa

Simple feature collection with 23 features and 19 fields
Geometry type: MULTIPOLYGON
Dimension:     XY
Bounding box:  xmin: 92.1721 ymin: 15.22063 xmax: 100.2381 ymax: 28.54554
Geodetic CRS:  WGS 84
# A tibble: 23 × 20
        ii       eii var_ii    z_ii   p_ii p_ii_sim p_folded_sim skewness
     <dbl>     <dbl>  <dbl>   <dbl>  <dbl>    <dbl>        <dbl>    <dbl>
 1  0.376   0.0163   0.121   1.03   0.301      0.28         0.14   -1.08 
 2  0.644   0.000352 0.129   1.80   0.0726     0.16         0.08    0.803
 3 -0.0610 -0.0246   0.135  -0.0990 0.921      0.82         0.41    0.916
 4 -0.0436 -0.0202   0.0384 -0.119  0.905      0.74         0.37   -0.930
 5  0.0914  0.0144   0.0558  0.326  0.744      0.88         0.39   -1.90 
 6  0.363  -0.0260   0.162   0.967  0.334      0.38         0.2    -0.694
 7  0.464   0.0623   0.291   0.743  0.457      0.22         0.21   -2.00 
 8  0.123   0.00477  0.0137  1.01   0.314      0.08         0.06   -0.985
 9  0.312  -0.0348   0.322   0.611  0.541      0.74         0.39   -1.62 
10  0.410  -0.0508   0.226   0.969  0.332      0.36         0.19   -0.989
# ℹ 13 more rows
# ℹ 12 more variables: kurtosis <dbl>, mean <fct>, median <fct>, pysal <fct>,
#   nb <nb>, wt <list>, DT <chr>, year <dbl>, event_type <chr>,
#   Incidents <int>, Fatalities <dbl>, geometry <MULTIPOLYGON [°]>
…
Now, we will compute the local Gi* by using the code chunk below.

HCSA <- wm_idw %>% 
  mutate(local_Gi = local_gstar_perm(
    Incidents, nb, wt, nsim = 99),
         .before = 1) %>%
  unnest(local_Gi)
HCSA

Simple feature collection with 23 features and 17 fields
Geometry type: MULTIPOLYGON
Dimension:     XY
Bounding box:  xmin: 92.1721 ymin: 15.22063 xmax: 100.2381 ymax: 28.54554
Geodetic CRS:  WGS 84
# A tibble: 23 × 18
   gi_star cluster   e_gi   var_gi std_dev p_value p_sim p_folded_sim skewness
     <dbl> <fct>    <dbl>    <dbl>   <dbl>   <dbl> <dbl>        <dbl>    <dbl>
 1 -1.14   Low     0.0309 0.000609  -0.997  0.319   0.42         0.21    0.896
 2  2.26   High    0.0507 0.000498   1.83   0.0676  0.12         0.06    0.617
 3  0.203  High    0.0530 0.000680  -0.152  0.880   0.82         0.43    1.13 
 4  0.0609 Low     0.0417 0.000516   0.141  0.888   0.76         0.38    0.427
 5 -0.444  Low     0.0439 0.00132   -0.512  0.609   0.9          0.41    1.42 
 6 -1.21   Low     0.0365 0.000698  -0.993  0.321   0.3          0.14    0.893
 7 -0.986  Low     0.0220 0.000889  -0.633  0.527   0.3          0.01    1.96 
 8 -0.963  Low     0.0372 0.000802  -0.887  0.375   0.08         0.01    1.39 
 9 -0.963  Low     0.0318 0.000638  -0.781  0.435   0.58         0.28    1.04 
10 -1.14   Low     0.0290 0.000619  -0.910  0.363   0.38         0.19    1.04 
# ℹ 13 more rows
# ℹ 9 more variables: kurtosis <dbl>, nb <nb>, wts <list>, DT <chr>,
#   year <dbl>, event_type <chr>, Incidents <int>, Fatalities <dbl>,
#   geometry <MULTIPOLYGON [°]>
…
