Imran’s Visual Analytics page - Take-home Exercise 4c
…
#for Quarterly admin 2
gi_stars3 <- Quarterly_nb %>% 
  group_by(quarter) %>% 
  mutate(gi_star = local_gstar_perm(
    Incidents, nb, wt)) %>% 
  tidyr::unnest(gi_star)

gi_stars3

# A tibble: 960 × 15
# Groups:   quarter [12]
   quarter DT      Incidents nb    wt    gi_star cluster    e_gi  var_gi std_dev
     <dbl> <chr>       <dbl> <lis> <lis>   <dbl> <fct>     <dbl>   <dbl>   <dbl>
 1   20211 Hintha…         0 <int> <dbl>  -0.938 Low     0.00894 1.48e-4 -0.735 
 2   20211 Labutta         0 <int> <dbl>  -0.645 Low     0.00521 1.58e-4 -0.414 
 3   20211 Maubin          0 <int> <dbl>  -0.938 Low     0.00942 1.51e-4 -0.767 
 4   20211 Myaung…         0 <int> <dbl>  -0.801 Low     0.00911 1.83e-4 -0.674 
 5   20211 Pathein         0 <int> <dbl>  -0.801 Low     0.00806 1.74e-4 -0.610 
 6   20211 Pyapon          0 <int> <dbl>  -0.801 Low     0.00782 1.81e-4 -0.581 
 7   20211 Bago            1 <int> <dbl>   0.321 Low     0.0106  1.39e-4  0.528 
 8   20211 Taungoo         8 <int> <dbl>   0.432 High    0.0213  1.22e-4 -0.306 
 9   20211 Pyay            0 <int> <dbl>  -0.337 Low     0.0100  1.71e-4 -0.181 
10   20211 Thayar…         0 <int> <dbl>  -0.270 Low     0.00969 1.68e-4 -0.0815
# ℹ 950 more rows
# ℹ 5 more variables: p_value <dbl>, p_sim <dbl>, p_folded_sim <dbl>,
#   skewness <dbl>, kurtosis <dbl>
…
Admin 2 districts

ehsa2 <- gi_stars2 %>%
  group_by(DT) %>%
  summarise(mk = list(
    unclass(
      Kendall::MannKendall(gi_star)))) %>%
  tidyr::unnest_wider(mk)

ehsa2

# A tibble: 80 × 6
   DT                              tau        sl     S     D  varS
   <chr>                         <dbl>     <dbl> <dbl> <dbl> <dbl>
 1 Bago                         0.231  0.274        21  91.0  334.
 2 Bawlake                      0.0989 0.661         9  91.0  334.
 3 Bhamo                       -0.363  0.0798      -33  91.0  334.
 4 Danu Self-Administered Zone -0.451  0.0285      -41  91.0  334.
 5 Dawei                        0.253  0.228        23  91.0  334.
 6 Det Khi Na                  -0.714  0.000459    -65  91.0  334.
 7 Falam                        0.231  0.274        21  91.0  334.
 8 Gangaw                       0.802  0.0000809    73  91.0  334.
 9 Hakha                        0.802  0.0000809    73  91.0  334.
10 Hinthada                    -0.495  0.0160      -45  91.0  334.
# ℹ 70 more rows

Admin 2 districts-quarterly

ehsa3 <- gi_stars3 %>%
  group_by(DT) %>%
  summarise(mk = list(
    unclass(
      Kendall::MannKendall(gi_star)))) %>%
  tidyr::unnest_wider(mk)

ehsa3

# A tibble: 80 × 6
   DT                              tau     sl     S     D  varS
   <chr>                         <dbl>  <dbl> <dbl> <dbl> <dbl>
 1 Bago                        -0.0606 0.837     -4  66.0  213.
 2 Bawlake                     -0.333  0.150    -22  66.0  213.
 3 Bhamo                       -0.303  0.193    -20  66.0  213.
 4 Danu Self-Administered Zone -0.394  0.0865   -26  66.0  213.
 5 Dawei                        0.515  0.0236    34  66.0  213.
 6 Det Khi Na                  -0.212  0.373    -14  66.0  213.
 7 Falam                       -0.333  0.150    -22  66.0  213.
 8 Gangaw                       0.121  0.631      8  66.0  213.
 9 Hakha                       -0.0303 0.945     -2  66.0  213.
10 Hinthada                    -0.242  0.304    -16  66.0  213.
# ℹ 70 more rows
…
