Imran’s Visual Analytics page - Take-home Exercise 4e - plotting for project poster
…
#for Quarterly admin 2
gi_stars3 <- Quarterly_nb %>% 
  group_by(quarter) %>% 
  mutate(gi_star = local_gstar_perm(
    Incidents, nb, wt)) %>% 
  tidyr::unnest(gi_star)

gi_stars3

# A tibble: 960 × 15
# Groups:   quarter [12]
   quarter DT      Incidents nb    wt    gi_star cluster    e_gi  var_gi std_dev
     <dbl> <chr>       <dbl> <lis> <lis>   <dbl> <fct>     <dbl>   <dbl>   <dbl>
 1   20211 Hintha…         0 <int> <dbl>  -0.938 Low     0.0101  1.70e-4 -0.776 
 2   20211 Labutta         0 <int> <dbl>  -0.645 Low     0.00613 1.91e-4 -0.444 
 3   20211 Maubin          0 <int> <dbl>  -0.938 Low     0.00945 1.42e-4 -0.795 
 4   20211 Myaung…         0 <int> <dbl>  -0.801 Low     0.00825 1.83e-4 -0.610 
 5   20211 Pathein         0 <int> <dbl>  -0.801 Low     0.00861 1.74e-4 -0.652 
 6   20211 Pyapon          0 <int> <dbl>  -0.801 Low     0.00766 1.56e-4 -0.613 
 7   20211 Bago            1 <int> <dbl>   0.321 Low     0.0109  1.39e-4  0.501 
 8   20211 Taungoo         8 <int> <dbl>   0.432 High    0.0210  1.23e-4 -0.280 
 9   20211 Pyay            0 <int> <dbl>  -0.337 Low     0.00906 1.74e-4 -0.105 
10   20211 Thayar…         0 <int> <dbl>  -0.270 Low     0.00926 1.78e-4 -0.0474
# ℹ 950 more rows
# ℹ 5 more variables: p_value <dbl>, p_sim <dbl>, p_folded_sim <dbl>,
#   skewness <dbl>, kurtosis <dbl>
…
varS
variance of S

ehsa3 <- gi_stars3 %>%
  group_by(DT) %>%
  summarise(mk = list(
    unclass(
      Kendall::MannKendall(gi_star)))) %>%
  tidyr::unnest_wider(mk)

ehsa3

# A tibble: 80 × 6
   DT                              tau     sl     S     D  varS
   <chr>                         <dbl>  <dbl> <dbl> <dbl> <dbl>
 1 Bago                        -0.0606 0.837     -4  66.0  213.
 2 Bawlake                     -0.333  0.150    -22  66.0  213.
 3 Bhamo                       -0.303  0.193    -20  66.0  213.
 4 Danu Self-Administered Zone -0.394  0.0865   -26  66.0  213.
 5 Dawei                        0.515  0.0236    34  66.0  213.
 6 Det Khi Na                  -0.212  0.373    -14  66.0  213.
 7 Falam                       -0.333  0.150    -22  66.0  213.
 8 Gangaw                       0.121  0.631      8  66.0  213.
 9 Hakha                       -0.0303 0.945     -2  66.0  213.
10 Hinthada                    -0.242  0.304    -16  66.0  213.
# ℹ 70 more rows
…
